\headcommand {\slideentry {0}{0}{1}{1/1}{}{0}}
\headcommand {\beamer@framepages {1}{1}}
\headcommand {\slideentry {0}{0}{2}{2/2}{}{0}}
\headcommand {\beamer@framepages {2}{2}}
\headcommand {\beamer@sectionpages {1}{2}}
\headcommand {\beamer@subsectionpages {1}{2}}
\headcommand {\sectionentry {1}{Objetivo}{3}{Objetivo}{0}}
\headcommand {\slideentry {1}{0}{1}{3/3}{}{0}}
\headcommand {\beamer@framepages {3}{3}}
\headcommand {\beamer@sectionpages {3}{3}}
\headcommand {\beamer@subsectionpages {3}{3}}
\headcommand {\sectionentry {2}{Fundamentação Teórica}{4}{Fundamentação Teórica}{0}}
\headcommand {\beamer@subsectionpages {4}{3}}
\headcommand {\beamer@subsectionentry {0}{2}{1}{4}{Super Resolução}}
\headcommand {\slideentry {2}{1}{1}{4/4}{Super Resolução}{0}}
\headcommand {\beamer@framepages {4}{4}}
\headcommand {\beamer@subsectionpages {4}{4}}
\headcommand {\beamer@subsectionentry {0}{2}{2}{5}{Super Resolução de Placas Veiculares}}
\headcommand {\slideentry {2}{2}{1}{5/5}{Super Resolução de Placas Veiculares}{0}}
\headcommand {\beamer@framepages {5}{5}}
\headcommand {\slideentry {2}{2}{2}{6/6}{Super Resolução de Placas Veiculares}{0}}
\headcommand {\beamer@framepages {6}{6}}
\headcommand {\slideentry {2}{2}{3}{7/7}{Super Resolução de Placas Veiculares}{0}}
\headcommand {\beamer@framepages {7}{7}}
\headcommand {\beamer@subsectionpages {5}{7}}
\headcommand {\beamer@subsectionentry {0}{2}{3}{8}{Redes Neurais Convolucionais}}
\headcommand {\slideentry {2}{3}{1}{8/8}{Redes Neurais Convolucionais}{0}}
\headcommand {\beamer@framepages {8}{8}}
\headcommand {\slideentry {2}{3}{2}{9/9}{Redes Neurais Convolucionais}{0}}
\headcommand {\beamer@framepages {9}{9}}
\headcommand {\slideentry {2}{3}{3}{10/10}{Redes Neurais Convolucionais}{0}}
\headcommand {\beamer@framepages {10}{10}}
\headcommand {\beamer@sectionpages {4}{10}}
\headcommand {\beamer@subsectionpages {8}{10}}
\headcommand {\sectionentry {3}{Método e Resultados}{11}{Método e Resultados}{0}}
\headcommand {\beamer@subsectionpages {11}{10}}
\headcommand {\beamer@subsectionentry {0}{3}{1}{11}{Arquitetura das redes}}
\headcommand {\slideentry {3}{1}{1}{11/11}{Arquitetura das redes}{0}}
\headcommand {\beamer@framepages {11}{11}}
\headcommand {\slideentry {3}{1}{2}{12/12}{Arquitetura das redes}{0}}
\headcommand {\beamer@framepages {12}{12}}
\headcommand {\slideentry {3}{1}{3}{13/13}{Arquitetura das redes}{0}}
\headcommand {\beamer@framepages {13}{13}}
\headcommand {\slideentry {3}{1}{4}{14/14}{Arquitetura das redes}{0}}
\headcommand {\beamer@framepages {14}{14}}
\headcommand {\slideentry {3}{1}{5}{15/15}{Arquitetura das redes}{0}}
\headcommand {\beamer@framepages {15}{15}}
\headcommand {\beamer@subsectionpages {11}{15}}
\headcommand {\beamer@subsectionentry {0}{3}{2}{16}{Conjunto de Dados}}
\headcommand {\slideentry {3}{2}{1}{16/16}{Conjunto de Dados}{0}}
\headcommand {\beamer@framepages {16}{16}}
\headcommand {\beamer@subsectionpages {16}{16}}
\headcommand {\beamer@subsectionentry {0}{3}{3}{17}{Treinamento das Redes}}
\headcommand {\slideentry {3}{3}{1}{17/17}{Treinamento das Redes}{0}}
\headcommand {\beamer@framepages {17}{17}}
\headcommand {\slideentry {3}{3}{2}{18/18}{Treinamento das Redes}{0}}
\headcommand {\beamer@framepages {18}{18}}
\headcommand {\slideentry {3}{3}{3}{19/19}{Treinamento das Redes}{0}}
\headcommand {\beamer@framepages {19}{19}}
\headcommand {\slideentry {3}{3}{4}{20/20}{Treinamento das Redes}{0}}
\headcommand {\beamer@framepages {20}{20}}
\headcommand {\slideentry {3}{3}{5}{21/21}{Treinamento das Redes}{0}}
\headcommand {\beamer@framepages {21}{21}}
\headcommand {\beamer@subsectionpages {17}{21}}
\headcommand {\beamer@subsectionentry {0}{3}{4}{22}{Resultados}}
\headcommand {\slideentry {3}{4}{1}{22/22}{Resultados}{0}}
\headcommand {\beamer@framepages {22}{22}}
\headcommand {\slideentry {3}{4}{2}{23/23}{Resultados}{0}}
\headcommand {\beamer@framepages {23}{23}}
\headcommand {\slideentry {3}{4}{3}{24/24}{Resultados}{0}}
\headcommand {\beamer@framepages {24}{24}}
\headcommand {\slideentry {3}{4}{4}{25/25}{Resultados}{0}}
\headcommand {\beamer@framepages {25}{25}}
\headcommand {\slideentry {3}{4}{5}{26/26}{Resultados}{0}}
\headcommand {\beamer@framepages {26}{26}}
\headcommand {\slideentry {3}{4}{6}{27/27}{Resultados}{0}}
\headcommand {\beamer@framepages {27}{27}}
\headcommand {\slideentry {3}{4}{7}{28/28}{Resultados}{0}}
\headcommand {\beamer@framepages {28}{28}}
\headcommand {\slideentry {3}{4}{8}{29/29}{Resultados}{0}}
\headcommand {\beamer@framepages {29}{29}}
\headcommand {\slideentry {3}{4}{9}{30/30}{Resultados}{0}}
\headcommand {\beamer@framepages {30}{30}}
\headcommand {\slideentry {3}{4}{10}{31/31}{Resultados}{0}}
\headcommand {\beamer@framepages {31}{31}}
\headcommand {\beamer@sectionpages {11}{31}}
\headcommand {\beamer@subsectionpages {22}{31}}
\headcommand {\sectionentry {4}{Referências}{32}{Referências}{0}}
\headcommand {\slideentry {4}{0}{1}{32/32}{}{0}}
\headcommand {\beamer@framepages {32}{32}}
\headcommand {\beamer@partpages {1}{32}}
\headcommand {\beamer@subsectionpages {32}{32}}
\headcommand {\beamer@sectionpages {32}{32}}
\headcommand {\beamer@documentpages {32}}
\headcommand {\gdef \inserttotalframenumber {32}}
